{
  "version": "1.0",
  "defaultProvider": "unpkg",
  "libraries": [
    {
      "provider": "jsdelivr",
      "library": "chart.js@2.9.3",
      "destination": "wwwroot/lib/chart.js/"
    },
    {
      "library": "bootstrap@4.4.1",
      "destination": "wwwroot/lib/bootstrap/"
    }
  ]
}